%YAML 1.1
%TAG !u! tag:unity3d.com,2011:
--- !u!114 &11400000
MonoBehaviour:
  m_ObjectHideFlags: 0
  m_CorrespondingSourceObject: {fileID: 0}
  m_PrefabInstance: {fileID: 0}
  m_PrefabAsset: {fileID: 0}
  m_GameObject: {fileID: 0}
  m_Enabled: 1
  m_EditorHideFlags: 0
  m_Script: {fileID: 11500000, guid: 00af60e655349e349854153e215e1f4c, type: 3}
  m_Name: LightPunch3
  m_EditorClassIdentifier: 
  movesKeyCodes: 6a0000006a0000006a000000
  Damage: 5
  AttackRange: 1.2
  attackDelay: 0.25
  timeToAttackAgain: 0
  SetTriggerString: LightAttack3
  Type: 0
  CanBeCountered: 0
  CounterAttackTimeOffset: 0
  CounterAttackTimeWindow: 0
  Probability: 0
  path: event:/SFX/Brom/LeveFaca
